<?xml version="1.0" encoding="UTF-8"?>
<svg width="16" height="16" version="1.1" viewBox="0 0 640 640" xmlns="http://www.w3.org/2000/svg">
 <g fill="#00f">
  <path d="m137.45 236.83 78.118-189.86c9.8884-25.71 17.799-32.632 37.081-32.632v-14.338h-86.523v14.338c17.799 0 28.182 2.4721 28.182 13.349 0 7.9107-2.9665 13.844-3.4609 16.316l-42.52 111.74-10.383 30.16h-2.9665l-9.394-29.665-42.026-110.26c-2.9665-6.9219-4.9442-12.855-4.9442-19.282 0-7.9107 6.4274-12.36 25.71-12.36v-14.338h-104.32v14.338c21.26 0 27.193 5.4386 40.048 36.093l73.668 186.4z" stroke-width="1.5451" aria-label="v"/>
  <path d="m324.05 639.99c87.347 0 142.69-38.673 178.69-92.681l-16.003-14.002c-37.339 40.673-82.013 64.677-143.36 64.677-94.015 0-159.36-57.342-159.36-190.7 0-118.69 54.009-192.02 150.02-192.02 68.678 0 116.02 36.673 130.69 124.02h22.67v-152.69h-20.003c-8.0013 13.335-12.002 24.004-22.67 24.004-16.669 0-41.34-24.004-111.35-24.004-128.02 0-218.7 82.013-218.7 227.37 0 130.02 72.012 226.03 209.36 226.03z" stroke-width="1.4884" aria-label="C"/>
  <path d="m536.38 640c55.415 0 103.62-26.569 103.62-78.568 0-33.781-25.43-53.897-55.795-63.386v-1.1387c23.912-15.182 40.992-29.226 40.992-55.415 0-28.846-22.394-50.861-61.109-50.861-31.124 0-54.656 17.46-68.7 50.481l8.7298 4.9342c12.905-20.117 26.949-30.744 49.722-30.744 23.533 0 38.715 12.905 38.715 35.299 0 30.744-26.949 51.62-52.759 51.62h-7.2116v14.423h7.5912c36.438 0 68.7 22.394 68.7 56.175 0 37.197-23.153 48.204-47.065 48.204-19.357 0-37.956-18.598-53.138-18.598-9.8685 0-14.803 8.7298-14.803 16.701 0 9.8685 8.3503 20.876 42.51 20.876z" stroke-width="2.3722" aria-label="3.0"/>
 </g>
</svg>
